%YAML 1.1
%TAG !u! tag:unity3d.com,2011:
--- !u!1 &1626208380512681690
GameObject:
  m_ObjectHideFlags: 0
  m_CorrespondingSourceObject: {fileID: 0}
  m_PrefabInstance: {fileID: 0}
  m_PrefabAsset: {fileID: 0}
  serializedVersion: 6
  m_Component:
  - component: {fileID: 8600380667584659465}
  - component: {fileID: 2131915343615927987}
  - component: {fileID: 690155718413414603}
  - component: {fileID: 1056923920972617452}
  - component: {fileID: 5101826573954670087}
  - component: {fileID: 6868327153396963031}
  m_Layer: 0
  m_Name: Chest_1
  m_TagString: Untagged
  m_Icon: {fileID: 0}
  m_NavMeshLayer: 0
  m_StaticEditorFlags: 0
  m_IsActive: 1
--- !u!4 &8600380667584659465
Transform:
  m_ObjectHideFlags: 0
  m_CorrespondingSourceObject: {fileID: 0}
  m_PrefabInstance: {fileID: 0}
  m_PrefabAsset: {fileID: 0}
  m_GameObject: {fileID: 1626208380512681690}
  m_LocalRotation: {x: 0, y: 0, z: 0, w: 1}
  m_LocalPosition: {x: 0, y: 0, z: 0}
  m_LocalScale: {x: 1, y: 1, z: 1}
  m_ConstrainProportionsScale: 0
  m_Children:
  - {fileID: 3873357332919015033}
  m_Father: {fileID: 0}
  m_RootOrder: 0
  m_LocalEulerAnglesHint: {x: 0, y: 0, z: 0}
--- !u!114 &2131915343615927987
MonoBehaviour:
  m_ObjectHideFlags: 0
  m_CorrespondingSourceObject: {fileID: 0}
  m_PrefabInstance: {fileID: 0}
  m_PrefabAsset: {fileID: 0}
  m_GameObject: {fileID: 1626208380512681690}
  m_Enabled: 1
  m_EditorHideFlags: 0
  m_Script: {fileID: 11500000, guid: 8233d90336aea43098adf6dbabd606a2, type: 3}
  m_Name: 
  m_EditorClassIdentifier: 
  m_MeshFormatVersion: 2
  m_Faces:
  - m_Indexes: 000000000100000002000000010000000300000002000000
    m_SmoothingGroup: 0
    m_Uv:
      m_UseWorldSpace: 0
      m_FlipU: 0
      m_FlipV: 0
      m_SwapUV: 0
      m_Fill: 1
      m_Scale: {x: 1, y: 1}
      m_Offset: {x: 0, y: 0}
      m_Rotation: 0
      m_Anchor: 9
    m_Material: {fileID: 0}
    m_SubmeshIndex: 0
    m_ManualUV: 0
    elementGroup: -1
    m_TextureGroup: -1
  - m_Indexes: 040000000500000006000000050000000700000006000000
    m_SmoothingGroup: 0
    m_Uv:
      m_UseWorldSpace: 0
      m_FlipU: 0
      m_FlipV: 0
      m_SwapUV: 0
      m_Fill: 1
      m_Scale: {x: 1, y: 1}
      m_Offset: {x: 0, y: 0}
      m_Rotation: 0
      m_Anchor: 9
    m_Material: {fileID: 0}
    m_SubmeshIndex: 0
    m_ManualUV: 0
    elementGroup: -1
    m_TextureGroup: -1
  - m_Indexes: 08000000090000000a000000090000000b0000000a000000
    m_SmoothingGroup: 0
    m_Uv:
      m_UseWorldSpace: 0
      m_FlipU: 0
      m_FlipV: 0
      m_SwapUV: 0
      m_Fill: 1
      m_Scale: {x: 1, y: 1}
      m_Offset: {x: 0, y: 0}
      m_Rotation: 0
      m_Anchor: 9
    m_Material: {fileID: 0}
    m_SubmeshIndex: 0
    m_ManualUV: 0
    elementGroup: -1
    m_TextureGroup: -1
  - m_Indexes: 0c0000000d0000000e0000000d0000000f0000000e000000
    m_SmoothingGroup: 0
    m_Uv:
      m_UseWorldSpace: 0
      m_FlipU: 0
      m_FlipV: 0
      m_SwapUV: 0
      m_Fill: 1
      m_Scale: {x: 1, y: 1}
      m_Offset: {x: 0, y: 0}
      m_Rotation: 0
      m_Anchor: 9
    m_Material: {fileID: 0}
    m_SubmeshIndex: 0
    m_ManualUV: 0
    elementGroup: -1
    m_TextureGroup: -1
  - m_Indexes: 100000001100000012000000110000001300000012000000
    m_SmoothingGroup: 0
    m_Uv:
      m_UseWorldSpace: 0
      m_FlipU: 0
      m_FlipV: 0
      m_SwapUV: 0
      m_Fill: 1
      m_Scale: {x: 1, y: 1}
      m_Offset: {x: 0, y: 0}
      m_Rotation: 0
      m_Anchor: 9
    m_Material: {fileID: 0}
    m_SubmeshIndex: 0
    m_ManualUV: 0
    elementGroup: -1
    m_TextureGroup: -1
  - m_Indexes: 140000001500000016000000150000001700000016000000
    m_SmoothingGroup: 0
    m_Uv:
      m_UseWorldSpace: 0
      m_FlipU: 0
      m_FlipV: 0
      m_SwapUV: 0
      m_Fill: 1
      m_Scale: {x: 1, y: 1}
      m_Offset: {x: 0, y: 0}
      m_Rotation: 0
      m_Anchor: 9
    m_Material: {fileID: 0}
    m_SubmeshIndex: 0
    m_ManualUV: 0
    elementGroup: -1
    m_TextureGroup: -1
  - m_Indexes: 18000000190000001a000000190000001b0000001a000000
    m_SmoothingGroup: 0
    m_Uv:
      m_UseWorldSpace: 0
      m_FlipU: 0
      m_FlipV: 0
      m_SwapUV: 0
      m_Fill: 1
      m_Scale: {x: 1, y: 1}
      m_Offset: {x: 0, y: 0}
      m_Rotation: 0
      m_Anchor: 9
    m_Material: {fileID: 0}
    m_SubmeshIndex: 0
    m_ManualUV: 0
    elementGroup: -1
    m_TextureGroup: -1
  - m_Indexes: 1c0000001d0000001e0000001d0000001f0000001e000000
    m_SmoothingGroup: 0
    m_Uv:
      m_UseWorldSpace: 0
      m_FlipU: 0
      m_FlipV: 0
      m_SwapUV: 0
      m_Fill: 1
      m_Scale: {x: 1, y: 1}
      m_Offset: {x: 0, y: 0}
      m_Rotation: 0
      m_Anchor: 9
    m_Material: {fileID: 0}
    m_SubmeshIndex: 0
    m_ManualUV: 0
    elementGroup: -1
    m_TextureGroup: -1
  - m_Indexes: 200000002100000022000000210000002300000022000000
    m_SmoothingGroup: 0
    m_Uv:
      m_UseWorldSpace: 0
      m_FlipU: 0
      m_FlipV: 0
      m_SwapUV: 0
      m_Fill: 1
      m_Scale: {x: 1, y: 1}
      m_Offset: {x: 0, y: 0}
      m_Rotation: 0
      m_Anchor: 9
    m_Material: {fileID: 0}
    m_SubmeshIndex: 0
    m_ManualUV: 0
    elementGroup: -1
    m_TextureGroup: -1
  - m_Indexes: 240000002500000026000000250000002700000026000000
    m_SmoothingGroup: 0
    m_Uv:
      m_UseWorldSpace: 0
      m_FlipU: 0
      m_FlipV: 0
      m_SwapUV: 0
      m_Fill: 1
      m_Scale: {x: 1, y: 1}
      m_Offset: {x: 0, y: 0}
      m_Rotation: 0
      m_Anchor: 9
    m_Material: {fileID: 0}
    m_SubmeshIndex: 0
    m_ManualUV: 0
    elementGroup: -1
    m_TextureGroup: -1
  - m_Indexes: 28000000290000002a000000290000002b0000002a000000
    m_SmoothingGroup: 0
    m_Uv:
      m_UseWorldSpace: 0
      m_FlipU: 0
      m_FlipV: 0
      m_SwapUV: 0
      m_Fill: 1
      m_Scale: {x: 1, y: 1}
      m_Offset: {x: 0, y: 0}
      m_Rotation: 0
      m_Anchor: 9
    m_Material: {fileID: 0}
    m_SubmeshIndex: 0
    m_ManualUV: 0
    elementGroup: -1
    m_TextureGroup: -1
  - m_Indexes: 2c0000002d0000002e0000002d0000002f0000002e000000
    m_SmoothingGroup: 0
    m_Uv:
      m_UseWorldSpace: 0
      m_FlipU: 0
      m_FlipV: 0
      m_SwapUV: 0
      m_Fill: 1
      m_Scale: {x: 1, y: 1}
      m_Offset: {x: 0, y: 0}
      m_Rotation: 0
      m_Anchor: 9
    m_Material: {fileID: 0}
    m_SubmeshIndex: 0
    m_ManualUV: 0
    elementGroup: -1
    m_TextureGroup: -1
  - m_Indexes: 300000003100000032000000310000003300000032000000
    m_SmoothingGroup: 0
    m_Uv:
      m_UseWorldSpace: 0
      m_FlipU: 0
      m_FlipV: 0
      m_SwapUV: 0
      m_Fill: 1
      m_Scale: {x: 1, y: 1}
      m_Offset: {x: 0, y: 0}
      m_Rotation: 0
      m_Anchor: 9
    m_Material: {fileID: 0}
    m_SubmeshIndex: 0
    m_ManualUV: 0
    elementGroup: -1
    m_TextureGroup: -1
  - m_Indexes: 340000003500000036000000350000003700000036000000
    m_SmoothingGroup: 0
    m_Uv:
      m_UseWorldSpace: 0
      m_FlipU: 0
      m_FlipV: 0
      m_SwapUV: 0
      m_Fill: 1
      m_Scale: {x: 1, y: 1}
      m_Offset: {x: 0, y: 0}
      m_Rotation: 0
      m_Anchor: 9
    m_Material: {fileID: 0}
    m_SubmeshIndex: 0
    m_ManualUV: 0
    elementGroup: -1
    m_TextureGroup: -1
  - m_Indexes: 38000000390000003a000000390000003b0000003a000000
    m_SmoothingGroup: 0
    m_Uv:
      m_UseWorldSpace: 0
      m_FlipU: 0
      m_FlipV: 0
      m_SwapUV: 0
      m_Fill: 1
      m_Scale: {x: 1, y: 1}
      m_Offset: {x: 0, y: 0}
      m_Rotation: 0
      m_Anchor: 9
    m_Material: {fileID: 0}
    m_SubmeshIndex: 0
    m_ManualUV: 0
    elementGroup: -1
    m_TextureGroup: -1
  - m_Indexes: 3c0000003d0000003e0000003d0000003f0000003e000000
    m_SmoothingGroup: 0
    m_Uv:
      m_UseWorldSpace: 0
      m_FlipU: 0
      m_FlipV: 0
      m_SwapUV: 0
      m_Fill: 1
      m_Scale: {x: 1, y: 1}
      m_Offset: {x: 0, y: 0}
      m_Rotation: 0
      m_Anchor: 9
    m_Material: {fileID: 0}
    m_SubmeshIndex: 0
    m_ManualUV: 0
    elementGroup: -1
    m_TextureGroup: -1
  - m_Indexes: 400000004100000042000000410000004300000042000000
    m_SmoothingGroup: 0
    m_Uv:
      m_UseWorldSpace: 0
      m_FlipU: 0
      m_FlipV: 0
      m_SwapUV: 0
      m_Fill: 1
      m_Scale: {x: 1, y: 1}
      m_Offset: {x: 0, y: 0}
      m_Rotation: 0
      m_Anchor: 9
    m_Material: {fileID: 0}
    m_SubmeshIndex: 0
    m_ManualUV: 0
    elementGroup: -1
    m_TextureGroup: -1
  - m_Indexes: 440000004500000046000000450000004700000046000000
    m_SmoothingGroup: 0
    m_Uv:
      m_UseWorldSpace: 0
      m_FlipU: 0
      m_FlipV: 0
      m_SwapUV: 0
      m_Fill: 1
      m_Scale: {x: 1, y: 1}
      m_Offset: {x: 0, y: 0}
      m_Rotation: 0
      m_Anchor: 9
    m_Material: {fileID: 0}
    m_SubmeshIndex: 0
    m_ManualUV: 0
    elementGroup: -1
    m_TextureGroup: -1
  - m_Indexes: 48000000490000004a000000490000004b0000004a000000
    m_SmoothingGroup: 0
    m_Uv:
      m_UseWorldSpace: 0
      m_FlipU: 0
      m_FlipV: 0
      m_SwapUV: 0
      m_Fill: 1
      m_Scale: {x: 1, y: 1}
      m_Offset: {x: 0, y: 0}
      m_Rotation: 0
      m_Anchor: 9
    m_Material: {fileID: 0}
    m_SubmeshIndex: 0
    m_ManualUV: 0
    elementGroup: -1
    m_TextureGroup: -1
  - m_Indexes: 4c0000004d0000004e0000004d0000004f0000004e000000
    m_SmoothingGroup: 0
    m_Uv:
      m_UseWorldSpace: 0
      m_FlipU: 0
      m_FlipV: 0
      m_SwapUV: 0
      m_Fill: 1
      m_Scale: {x: 1, y: 1}
      m_Offset: {x: 0, y: 0}
      m_Rotation: 0
      m_Anchor: 9
    m_Material: {fileID: 0}
    m_SubmeshIndex: 0
    m_ManualUV: 0
    elementGroup: -1
    m_TextureGroup: -1
  - m_Indexes: 500000005100000052000000510000005300000052000000
    m_SmoothingGroup: 0
    m_Uv:
      m_UseWorldSpace: 0
      m_FlipU: 0
      m_FlipV: 0
      m_SwapUV: 0
      m_Fill: 1
      m_Scale: {x: 1, y: 1}
      m_Offset: {x: 0, y: 0}
      m_Rotation: 0
      m_Anchor: 9
    m_Material: {fileID: 0}
    m_SubmeshIndex: 0
    m_ManualUV: 0
    elementGroup: -1
    m_TextureGroup: -1
  - m_Indexes: 540000005500000056000000550000005700000056000000
    m_SmoothingGroup: 0
    m_Uv:
      m_UseWorldSpace: 0
      m_FlipU: 0
      m_FlipV: 0
      m_SwapUV: 0
      m_Fill: 1
      m_Scale: {x: 1, y: 1}
      m_Offset: {x: 0, y: 0}
      m_Rotation: 0
      m_Anchor: 9
    m_Material: {fileID: 0}
    m_SubmeshIndex: 0
    m_ManualUV: 0
    elementGroup: -1
    m_TextureGroup: -1
  - m_Indexes: 58000000590000005a000000590000005b0000005a000000
    m_SmoothingGroup: 0
    m_Uv:
      m_UseWorldSpace: 0
      m_FlipU: 0
      m_FlipV: 0
      m_SwapUV: 0
      m_Fill: 1
      m_Scale: {x: 1, y: 1}
      m_Offset: {x: 0, y: 0}
      m_Rotation: 0
      m_Anchor: 9
    m_Material: {fileID: 0}
    m_SubmeshIndex: 0
    m_ManualUV: 0
    elementGroup: -1
    m_TextureGroup: -1
  - m_Indexes: 5c0000005d0000005e0000005d0000005f0000005e000000
    m_SmoothingGroup: 0
    m_Uv:
      m_UseWorldSpace: 0
      m_FlipU: 0
      m_FlipV: 0
      m_SwapUV: 0
      m_Fill: 1
      m_Scale: {x: 1, y: 1}
      m_Offset: {x: 0, y: 0}
      m_Rotation: 0
      m_Anchor: 9
    m_Material: {fileID: 0}
    m_SubmeshIndex: 0
    m_ManualUV: 0
    elementGroup: -1
    m_TextureGroup: -1
  - m_Indexes: 600000006100000062000000610000006300000062000000
    m_SmoothingGroup: 0
    m_Uv:
      m_UseWorldSpace: 0
      m_FlipU: 0
      m_FlipV: 0
      m_SwapUV: 0
      m_Fill: 1
      m_Scale: {x: 1, y: 1}
      m_Offset: {x: 0, y: 0}
      m_Rotation: 0
      m_Anchor: 9
    m_Material: {fileID: 0}
    m_SubmeshIndex: 0
    m_ManualUV: 0
    elementGroup: -1
    m_TextureGroup: -1
  - m_Indexes: 640000006500000066000000650000006700000066000000
    m_SmoothingGroup: 0
    m_Uv:
      m_UseWorldSpace: 0
      m_FlipU: 0
      m_FlipV: 0
      m_SwapUV: 0
      m_Fill: 1
      m_Scale: {x: 1, y: 1}
      m_Offset: {x: 0, y: 0}
      m_Rotation: 0
      m_Anchor: 9
    m_Material: {fileID: 0}
    m_SubmeshIndex: 0
    m_ManualUV: 0
    elementGroup: -1
    m_TextureGroup: -1
  m_SharedVertices:
  - m_Vertices: 000000000d00000016000000
  - m_Vertices: 010000000400000017000000
  - m_Vertices: 020000000f000000180000001d000000
  - m_Vertices: 100000005a0000005f000000
  - m_Vertices: 4a0000004f000000580000005d000000
  - m_Vertices: 3a0000003f000000480000004d000000
  - m_Vertices: 2a0000002f000000380000003d000000
  - m_Vertices: 1a0000001f000000280000002d000000
  - m_Vertices: 03000000060000001900000020000000
  - m_Vertices: 110000005b00000062000000
  - m_Vertices: 4b000000520000005900000060000000
  - m_Vertices: 3b000000420000004900000050000000
  - m_Vertices: 2b000000320000003900000040000000
  - m_Vertices: 1b000000220000002900000030000000
  - m_Vertices: 050000000800000015000000
  - m_Vertices: 070000000a0000002100000024000000
  - m_Vertices: 130000006300000066000000
  - m_Vertices: 53000000560000006100000064000000
  - m_Vertices: 43000000460000005100000054000000
  - m_Vertices: 33000000360000004100000044000000
  - m_Vertices: 23000000260000003100000034000000
  - m_Vertices: 090000000c00000014000000
  - m_Vertices: 0b0000000e0000001c00000025000000
  - m_Vertices: 120000005e00000067000000
  - m_Vertices: 4e000000570000005c00000065000000
  - m_Vertices: 3e000000470000004c00000055000000
  - m_Vertices: 2e000000370000003c00000045000000
  - m_Vertices: 1e000000270000002c00000035000000
  m_SharedTextures: []
  m_Positions:
  - {x: 0, y: 0, z: 1}
  - {x: 1, y: 0, z: 1}
  - {x: 0, y: 1, z: 1}
  - {x: 1, y: 1, z: 1}
  - {x: 1, y: 0, z: 1}
  - {x: 1, y: 0, z: -1}
  - {x: 1, y: 1, z: 1}
  - {x: 1, y: 1, z: -1}
  - {x: 1, y: 0, z: -1}
  - {x: 0, y: 0, z: -1}
  - {x: 1, y: 1, z: -1}
  - {x: 0, y: 1, z: -1}
  - {x: 0, y: 0, z: -1}
  - {x: 0, y: 0, z: 1}
  - {x: 0, y: 1, z: -1}
  - {x: 0, y: 1, z: 1}
  - {x: 0.03833267, y: 0.1, z: 0.95167094}
  - {x: 0.9616673, y: 0.1, z: 0.95167094}
  - {x: 0.03833267, y: 0.1, z: -0.95167094}
  - {x: 0.9616673, y: 0.1, z: -0.95167094}
  - {x: 0, y: 0, z: -1}
  - {x: 1, y: 0, z: -1}
  - {x: 0, y: 0, z: 1}
  - {x: 1, y: 0, z: 1}
  - {x: 0, y: 1, z: 1}
  - {x: 1, y: 1, z: 1}
  - {x: 0, y: 1, z: 1}
  - {x: 1, y: 1, z: 1}
  - {x: 0, y: 1, z: -1}
  - {x: 0, y: 1, z: 1}
  - {x: 0, y: 1, z: -1}
  - {x: 0, y: 1, z: 1}
  - {x: 1, y: 1, z: 1}
  - {x: 1, y: 1, z: -1}
  - {x: 1, y: 1, z: 1}
  - {x: 1, y: 1, z: -1}
  - {x: 1, y: 1, z: -1}
  - {x: 0, y: 1, z: -1}
  - {x: 1, y: 1, z: -1}
  - {x: 0, y: 1, z: -1}
  - {x: 0, y: 1, z: 1}
  - {x: 1, y: 1, z: 1}
  - {x: 0.03833267, y: 1, z: 0.95167094}
  - {x: 0.9616673, y: 1, z: 0.95167094}
  - {x: 0, y: 1, z: -1}
  - {x: 0, y: 1, z: 1}
  - {x: 0.03833267, y: 1, z: -0.95167094}
  - {x: 0.03833267, y: 1, z: 0.95167094}
  - {x: 1, y: 1, z: 1}
  - {x: 1, y: 1, z: -1}
  - {x: 0.9616673, y: 1, z: 0.95167094}
  - {x: 0.9616673, y: 1, z: -0.95167094}
  - {x: 1, y: 1, z: -1}
  - {x: 0, y: 1, z: -1}
  - {x: 0.9616673, y: 1, z: -0.95167094}
  - {x: 0.03833267, y: 1, z: -0.95167094}
  - {x: 0.03833267, y: 1, z: 0.95167094}
  - {x: 0.9616673, y: 1, z: 0.95167094}
  - {x: 0.03833267, y: 1, z: 0.95167094}
  - {x: 0.9616673, y: 1, z: 0.95167094}
  - {x: 0.03833267, y: 1, z: -0.95167094}
  - {x: 0.03833267, y: 1, z: 0.95167094}
  - {x: 0.03833267, y: 1, z: -0.95167094}
  - {x: 0.03833267, y: 1, z: 0.95167094}
  - {x: 0.9616673, y: 1, z: 0.95167094}
  - {x: 0.9616673, y: 1, z: -0.95167094}
  - {x: 0.9616673, y: 1, z: 0.95167094}
  - {x: 0.9616673, y: 1, z: -0.95167094}
  - {x: 0.9616673, y: 1, z: -0.95167094}
  - {x: 0.03833267, y: 1, z: -0.95167094}
  - {x: 0.9616673, y: 1, z: -0.95167094}
  - {x: 0.03833267, y: 1, z: -0.95167094}
  - {x: 0.03833267, y: 1, z: 0.95167094}
  - {x: 0.9616673, y: 1, z: 0.95167094}
  - {x: 0.03833267, y: 1, z: 0.95167094}
  - {x: 0.9616673, y: 1, z: 0.95167094}
  - {x: 0.03833267, y: 1, z: -0.95167094}
  - {x: 0.03833267, y: 1, z: 0.95167094}
  - {x: 0.03833267, y: 1, z: -0.95167094}
  - {x: 0.03833267, y: 1, z: 0.95167094}
  - {x: 0.9616673, y: 1, z: 0.95167094}
  - {x: 0.9616673, y: 1, z: -0.95167094}
  - {x: 0.9616673, y: 1, z: 0.95167094}
  - {x: 0.9616673, y: 1, z: -0.95167094}
  - {x: 0.9616673, y: 1, z: -0.95167094}
  - {x: 0.03833267, y: 1, z: -0.95167094}
  - {x: 0.9616673, y: 1, z: -0.95167094}
  - {x: 0.03833267, y: 1, z: -0.95167094}
  - {x: 0.03833267, y: 1, z: 0.95167094}
  - {x: 0.9616673, y: 1, z: 0.95167094}
  - {x: 0.03833267, y: 0.1, z: 0.95167094}
  - {x: 0.9616673, y: 0.1, z: 0.95167094}
  - {x: 0.03833267, y: 1, z: -0.95167094}
  - {x: 0.03833267, y: 1, z: 0.95167094}
  - {x: 0.03833267, y: 0.1, z: -0.95167094}
  - {x: 0.03833267, y: 0.1, z: 0.95167094}
  - {x: 0.9616673, y: 1, z: 0.95167094}
  - {x: 0.9616673, y: 1, z: -0.95167094}
  - {x: 0.9616673, y: 0.1, z: 0.95167094}
  - {x: 0.9616673, y: 0.1, z: -0.95167094}
  - {x: 0.9616673, y: 1, z: -0.95167094}
  - {x: 0.03833267, y: 1, z: -0.95167094}
  - {x: 0.9616673, y: 0.1, z: -0.95167094}
  - {x: 0.03833267, y: 0.1, z: -0.95167094}
  m_Textures0:
  - {x: 0, y: 0}
  - {x: -1, y: 0}
  - {x: 0, y: 1}
  - {x: -1, y: 1}
  - {x: 1, y: 0}
  - {x: -1, y: 0}
  - {x: 1, y: 1}
  - {x: -1, y: 1}
  - {x: 1, y: 0}
  - {x: 0, y: 0}
  - {x: 1, y: 1}
  - {x: 0, y: 1}
  - {x: 1, y: 0}
  - {x: -1, y: 0}
  - {x: 1, y: 1}
  - {x: -1, y: 1}
  - {x: 0.03833267, y: 0.95167094}
  - {x: 0.9616673, y: 0.95167094}
  - {x: 0.03833267, y: -0.95167094}
  - {x: 0.9616673, y: -0.95167094}
  - {x: 0, y: -1}
  - {x: -1, y: -1}
  - {x: 0, y: 1}
  - {x: -1, y: 1}
  - {x: 0, y: 1}
  - {x: 1, y: 1}
  - {x: 0, y: 1}
  - {x: 1, y: 1}
  - {x: 0, y: -1}
  - {x: 0, y: 1}
  - {x: 0, y: -1}
  - {x: 0, y: 1}
  - {x: 1, y: 1}
  - {x: 1, y: -1}
  - {x: 1, y: 1}
  - {x: 1, y: -1}
  - {x: 1, y: -1}
  - {x: 0, y: -1}
  - {x: 1, y: -1}
  - {x: 0, y: -1}
  - {x: 0, y: 1}
  - {x: 1, y: 1}
  - {x: 0.03833267, y: 0.95167094}
  - {x: 0.9616673, y: 0.95167094}
  - {x: 0, y: -1}
  - {x: 0, y: 1}
  - {x: 0.03833267, y: -0.95167094}
  - {x: 0.03833267, y: 0.95167094}
  - {x: 1, y: 1}
  - {x: 1, y: -1}
  - {x: 0.9616673, y: 0.95167094}
  - {x: 0.9616673, y: -0.95167094}
  - {x: 1, y: -1}
  - {x: 0, y: -1}
  - {x: 0.9616673, y: -0.95167094}
  - {x: 0.03833267, y: -0.95167094}
  - {x: 0.03833267, y: 0.95167094}
  - {x: 0.9616673, y: 0.95167094}
  - {x: 0.03833267, y: 0.95167094}
  - {x: 0.9616673, y: 0.95167094}
  - {x: 0.03833267, y: -0.95167094}
  - {x: 0.03833267, y: 0.95167094}
  - {x: 0.03833267, y: -0.95167094}
  - {x: 0.03833267, y: 0.95167094}
  - {x: 0.9616673, y: 0.95167094}
  - {x: 0.9616673, y: -0.95167094}
  - {x: 0.9616673, y: 0.95167094}
  - {x: 0.9616673, y: -0.95167094}
  - {x: 0.9616673, y: -0.95167094}
  - {x: 0.03833267, y: -0.95167094}
  - {x: 0.9616673, y: -0.95167094}
  - {x: 0.03833267, y: -0.95167094}
  - {x: 0.03833267, y: 0.95167094}
  - {x: 0.9616673, y: 0.95167094}
  - {x: 0.03833267, y: 0.95167094}
  - {x: 0.9616673, y: 0.95167094}
  - {x: 0.03833267, y: -0.95167094}
  - {x: 0.03833267, y: 0.95167094}
  - {x: 0.03833267, y: -0.95167094}
  - {x: 0.03833267, y: 0.95167094}
  - {x: 0.9616673, y: 0.95167094}
  - {x: 0.9616673, y: -0.95167094}
  - {x: 0.9616673, y: 0.95167094}
  - {x: 0.9616673, y: -0.95167094}
  - {x: 0.9616673, y: -0.95167094}
  - {x: 0.03833267, y: -0.95167094}
  - {x: 0.9616673, y: -0.95167094}
  - {x: 0.03833267, y: -0.95167094}
  - {x: 0.03833267, y: 1}
  - {x: 0.9616673, y: 1}
  - {x: 0.03833267, y: 0.1}
  - {x: 0.9616673, y: 0.1}
  - {x: -0.95167094, y: 1}
  - {x: 0.95167094, y: 1}
  - {x: -0.95167094, y: 0.1}
  - {x: 0.95167094, y: 0.1}
  - {x: -0.95167094, y: 1}
  - {x: 0.95167094, y: 1}
  - {x: -0.95167094, y: 0.1}
  - {x: 0.95167094, y: 0.1}
  - {x: -0.9616673, y: 1}
  - {x: -0.03833267, y: 1}
  - {x: -0.9616673, y: 0.1}
  - {x: -0.03833267, y: 0.1}
  m_Textures2: []
  m_Textures3: []
  m_Tangents:
  - {x: -1, y: 0, z: 0, w: -1}
  - {x: -1, y: 0, z: 0, w: -1}
  - {x: -1, y: 0, z: 0, w: -1}
  - {x: -1, y: 0, z: 0, w: -1}
  - {x: 0, y: 0, z: 1, w: -1}
  - {x: 0, y: 0, z: 1, w: -1}
  - {x: 0, y: 0, z: 1, w: -1}
  - {x: 0, y: 0, z: 1, w: -1}
  - {x: 1, y: 0, z: 0, w: -1}
  - {x: 1, y: 0, z: 0, w: -1}
  - {x: 1, y: 0, z: 0, w: -1}
  - {x: 1, y: 0, z: 0, w: -1}
  - {x: 0, y: 0, z: -1, w: -1}
  - {x: 0, y: 0, z: -1, w: -1}
  - {x: 0, y: 0, z: -1, w: -1}
  - {x: 0, y: 0, z: -1, w: -1}
  - {x: 1, y: 0, z: 0, w: -1}
  - {x: 1, y: 0, z: 0, w: -1}
  - {x: 1, y: 0, z: 0, w: -1}
  - {x: 1, y: 0, z: 0, w: -1}
  - {x: -1, y: 0, z: 0, w: -1}
  - {x: -1, y: 0, z: 0, w: -1}
  - {x: -1, y: 0, z: 0, w: -1}
  - {x: -1, y: 0, z: 0, w: -1}
  - {x: -0, y: 1, z: 0, w: 1}
  - {x: -0, y: 1, z: 0, w: 1}
  - {x: -0, y: 1, z: 0, w: 1}
  - {x: -0, y: 1, z: 0, w: 1}
  - {x: -0, y: 1, z: 0, w: 1}
  - {x: -0, y: 1, z: 0, w: 1}
  - {x: -0, y: 1, z: 0, w: 1}
  - {x: -0, y: 1, z: 0, w: 1}
  - {x: -0, y: 1, z: 0, w: 1}
  - {x: -0, y: 1, z: 0, w: 1}
  - {x: -0, y: 1, z: 0, w: 1}
  - {x: -0, y: 1, z: 0, w: 1}
  - {x: -0, y: 1, z: 0, w: 1}
  - {x: -0, y: 1, z: 0, w: 1}
  - {x: -0, y: 1, z: 0, w: 1}
  - {x: -0, y: 1, z: 0, w: 1}
  - {x: 1, y: 0, z: 0, w: -1}
  - {x: 1, y: 0, z: 0, w: -1}
  - {x: 1, y: 0, z: 0, w: -1}
  - {x: 1, y: 0, z: 0, w: -1}
  - {x: 1, y: 0, z: 0, w: -1}
  - {x: 1, y: 0, z: 0, w: -1}
  - {x: 1, y: 0, z: 0, w: -1}
  - {x: 1, y: 0, z: 0, w: -1}
  - {x: 1, y: 0, z: 0, w: -1}
  - {x: 1, y: 0, z: 0, w: -1}
  - {x: 1, y: 0, z: 0, w: -1}
  - {x: 1, y: 0, z: 0, w: -1}
  - {x: 1, y: 0, z: 0, w: -1}
  - {x: 1, y: 0, z: 0, w: -1}
  - {x: 1, y: 0, z: 0, w: -1}
  - {x: 1, y: 0, z: 0, w: -1}
  - {x: -0, y: 1, z: 0, w: 1}
  - {x: -0, y: 1, z: 0, w: 1}
  - {x: -0, y: 1, z: 0, w: 1}
  - {x: -0, y: 1, z: 0, w: 1}
  - {x: -0, y: 1, z: 0, w: 1}
  - {x: -0, y: 1, z: 0, w: 1}
  - {x: -0, y: 1, z: 0, w: 1}
  - {x: -0, y: 1, z: 0, w: 1}
  - {x: -0, y: 1, z: 0, w: 1}
  - {x: -0, y: 1, z: 0, w: 1}
  - {x: -0, y: 1, z: 0, w: 1}
  - {x: -0, y: 1, z: 0, w: 1}
  - {x: -0, y: 1, z: 0, w: 1}
  - {x: -0, y: 1, z: 0, w: 1}
  - {x: -0, y: 1, z: 0, w: 1}
  - {x: -0, y: 1, z: 0, w: 1}
  - {x: -0, y: 1, z: 0, w: 1}
  - {x: -0, y: 1, z: 0, w: 1}
  - {x: -0, y: 1, z: 0, w: 1}
  - {x: -0, y: 1, z: 0, w: 1}
  - {x: -0, y: 1, z: 0, w: 1}
  - {x: -0, y: 1, z: 0, w: 1}
  - {x: -0, y: 1, z: 0, w: 1}
  - {x: -0, y: 1, z: 0, w: 1}
  - {x: -0, y: 1, z: 0, w: 1}
  - {x: -0, y: 1, z: 0, w: 1}
  - {x: -0, y: 1, z: 0, w: 1}
  - {x: -0, y: 1, z: 0, w: 1}
  - {x: -0, y: 1, z: 0, w: 1}
  - {x: -0, y: 1, z: 0, w: 1}
  - {x: -0, y: 1, z: 0, w: 1}
  - {x: -0, y: 1, z: 0, w: 1}
  - {x: 1, y: 0, z: 0, w: -1}
  - {x: 1, y: 0, z: 0, w: -1}
  - {x: 1, y: 0, z: 0, w: -1}
  - {x: 1, y: 0, z: 0, w: -1}
  - {x: 0, y: 0, z: 1, w: -1}
  - {x: 0, y: 0, z: 1, w: -1}
  - {x: 0, y: 0, z: 1, w: -1}
  - {x: 0, y: 0, z: 1, w: -1}
  - {x: 0, y: 0, z: -1, w: -1}
  - {x: 0, y: 0, z: -1, w: -1}
  - {x: 0, y: 0, z: -1, w: -1}
  - {x: 0, y: 0, z: -1, w: -1}
  - {x: -1, y: 0, z: 0, w: -1}
  - {x: -1, y: 0, z: 0, w: -1}
  - {x: -1, y: 0, z: 0, w: -1}
  - {x: -1, y: 0, z: 0, w: -1}
  m_Colors: []
  m_UnwrapParameters:
    m_HardAngle: 88
    m_PackMargin: 20
    m_AngleError: 8
    m_AreaError: 15
  m_PreserveMeshAssetOnDestroy: 0
  assetGuid: 
  m_Mesh: {fileID: 0}
  m_VersionIndex: 1573
  m_IsSelectable: 1
  m_SelectedFaces: 
  m_SelectedEdges: []
  m_SelectedVertices: 
--- !u!114 &690155718413414603
MonoBehaviour:
  m_ObjectHideFlags: 0
  m_CorrespondingSourceObject: {fileID: 0}
  m_PrefabInstance: {fileID: 0}
  m_PrefabAsset: {fileID: 0}
  m_GameObject: {fileID: 1626208380512681690}
  m_Enabled: 1
  m_EditorHideFlags: 0
  m_Script: {fileID: 11500000, guid: 1ca002da428252441b92f28d83c8a65f, type: 3}
  m_Name: 
  m_EditorClassIdentifier: 
  m_Shape:
    rid: 2426874071794581510
  m_Size: {x: 1, y: 1, z: 1}
  m_Rotation: {x: 0, y: 0, z: 0, w: 1}
  m_PivotLocation: 1
  m_PivotPosition: {x: 0, y: 0, z: 0}
  m_UnmodifiedMeshVersion: 17
  m_ShapeBox:
    m_Center: {x: 0.5, y: 0.5, z: 0.5}
    m_Extent: {x: 0.5, y: 0.5, z: 0.5}
  references:
    version: 2
    RefIds:
    - rid: 2426874071794581510
      type: {class: Cube, ns: UnityEngine.ProBuilder.Shapes, asm: Unity.ProBuilder}
--- !u!23 &1056923920972617452
MeshRenderer:
  m_ObjectHideFlags: 0
  m_CorrespondingSourceObject: {fileID: 0}
  m_PrefabInstance: {fileID: 0}
  m_PrefabAsset: {fileID: 0}
  m_GameObject: {fileID: 1626208380512681690}
  m_Enabled: 1
  m_CastShadows: 1
  m_ReceiveShadows: 1
  m_DynamicOccludee: 1
  m_StaticShadowCaster: 0
  m_MotionVectors: 1
  m_LightProbeUsage: 1
  m_ReflectionProbeUsage: 1
  m_RayTracingMode: 2
  m_RayTraceProcedural: 0
  m_RenderingLayerMask: 1
  m_RendererPriority: 0
  m_Materials:
  - {fileID: 2100000, guid: c22777d6e868e4f2fb421913386b154e, type: 2}
  m_StaticBatchInfo:
    firstSubMesh: 0
    subMeshCount: 0
  m_StaticBatchRoot: {fileID: 0}
  m_ProbeAnchor: {fileID: 0}
  m_LightProbeVolumeOverride: {fileID: 0}
  m_ScaleInLightmap: 1
  m_ReceiveGI: 1
  m_PreserveUVs: 0
  m_IgnoreNormalsForChartDetection: 0
  m_ImportantGI: 0
  m_StitchLightmapSeams: 1
  m_SelectedEditorRenderState: 2
  m_MinimumChartSize: 4
  m_AutoUVMaxDistance: 0.5
  m_AutoUVMaxAngle: 89
  m_LightmapParameters: {fileID: 0}
  m_SortingLayerID: 0
  m_SortingLayer: 0
  m_SortingOrder: 0
  m_AdditionalVertexStreams: {fileID: 0}
--- !u!33 &5101826573954670087
MeshFilter:
  m_ObjectHideFlags: 0
  m_CorrespondingSourceObject: {fileID: 0}
  m_PrefabInstance: {fileID: 0}
  m_PrefabAsset: {fileID: 0}
  m_GameObject: {fileID: 1626208380512681690}
  m_Mesh: {fileID: 0}
--- !u!64 &6868327153396963031
MeshCollider:
  m_ObjectHideFlags: 0
  m_CorrespondingSourceObject: {fileID: 0}
  m_PrefabInstance: {fileID: 0}
  m_PrefabAsset: {fileID: 0}
  m_GameObject: {fileID: 1626208380512681690}
  m_Material: {fileID: 0}
  m_IsTrigger: 0
  m_Enabled: 1
  serializedVersion: 4
  m_Convex: 0
  m_CookingOptions: 30
  m_Mesh: {fileID: 0}
--- !u!1 &6892082183458927279
GameObject:
  m_ObjectHideFlags: 0
  m_CorrespondingSourceObject: {fileID: 0}
  m_PrefabInstance: {fileID: 0}
  m_PrefabAsset: {fileID: 0}
  serializedVersion: 6
  m_Component:
  - component: {fileID: 3873357332919015033}
  - component: {fileID: 2296246001654363532}
  - component: {fileID: 4546778449818818157}
  - component: {fileID: 8451990085977060227}
  - component: {fileID: 3139898159538318044}
  - component: {fileID: 6290533839409185651}
  m_Layer: 0
  m_Name: Tapa
  m_TagString: Untagged
  m_Icon: {fileID: 0}
  m_NavMeshLayer: 0
  m_StaticEditorFlags: 0
  m_IsActive: 1
--- !u!4 &3873357332919015033
Transform:
  m_ObjectHideFlags: 0
  m_CorrespondingSourceObject: {fileID: 0}
  m_PrefabInstance: {fileID: 0}
  m_PrefabAsset: {fileID: 0}
  m_GameObject: {fileID: 6892082183458927279}
  m_LocalRotation: {x: -0, y: -0, z: -0.0000004768371, w: 1}
  m_LocalPosition: {x: 1, y: 1, z: 1}
  m_LocalScale: {x: 1, y: 1, z: 1}
  m_ConstrainProportionsScale: 0
  m_Children: []
  m_Father: {fileID: 8600380667584659465}
  m_RootOrder: 0
  m_LocalEulerAnglesHint: {x: 0, y: 0, z: 0}
--- !u!114 &2296246001654363532
MonoBehaviour:
  m_ObjectHideFlags: 0
  m_CorrespondingSourceObject: {fileID: 0}
  m_PrefabInstance: {fileID: 0}
  m_PrefabAsset: {fileID: 0}
  m_GameObject: {fileID: 6892082183458927279}
  m_Enabled: 1
  m_EditorHideFlags: 0
  m_Script: {fileID: 11500000, guid: 8233d90336aea43098adf6dbabd606a2, type: 3}
  m_Name: 
  m_EditorClassIdentifier: 
  m_MeshFormatVersion: 2
  m_Faces:
  - m_Indexes: 000000000100000002000000010000000300000002000000
    m_SmoothingGroup: 0
    m_Uv:
      m_UseWorldSpace: 0
      m_FlipU: 0
      m_FlipV: 0
      m_SwapUV: 0
      m_Fill: 1
      m_Scale: {x: 1, y: 1}
      m_Offset: {x: 0, y: 0}
      m_Rotation: 0
      m_Anchor: 9
    m_Material: {fileID: 0}
    m_SubmeshIndex: 0
    m_ManualUV: 0
    elementGroup: -1
    m_TextureGroup: -1
  - m_Indexes: 040000000500000006000000050000000700000006000000
    m_SmoothingGroup: 0
    m_Uv:
      m_UseWorldSpace: 0
      m_FlipU: 0
      m_FlipV: 0
      m_SwapUV: 0
      m_Fill: 1
      m_Scale: {x: 1, y: 1}
      m_Offset: {x: 0, y: 0}
      m_Rotation: 0
      m_Anchor: 9
    m_Material: {fileID: 0}
    m_SubmeshIndex: 0
    m_ManualUV: 0
    elementGroup: -1
    m_TextureGroup: -1
  - m_Indexes: 08000000090000000a000000090000000b0000000a000000
    m_SmoothingGroup: 0
    m_Uv:
      m_UseWorldSpace: 0
      m_FlipU: 0
      m_FlipV: 0
      m_SwapUV: 0
      m_Fill: 1
      m_Scale: {x: 1, y: 1}
      m_Offset: {x: 0, y: 0}
      m_Rotation: 0
      m_Anchor: 9
    m_Material: {fileID: 0}
    m_SubmeshIndex: 0
    m_ManualUV: 0
    elementGroup: -1
    m_TextureGroup: -1
  - m_Indexes: 0c0000000d0000000e0000000d0000000f0000000e000000
    m_SmoothingGroup: 0
    m_Uv:
      m_UseWorldSpace: 0
      m_FlipU: 0
      m_FlipV: 0
      m_SwapUV: 0
      m_Fill: 1
      m_Scale: {x: 1, y: 1}
      m_Offset: {x: 0, y: 0}
      m_Rotation: 0
      m_Anchor: 9
    m_Material: {fileID: 0}
    m_SubmeshIndex: 0
    m_ManualUV: 0
    elementGroup: -1
    m_TextureGroup: -1
  - m_Indexes: 100000001100000012000000110000001300000012000000
    m_SmoothingGroup: 0
    m_Uv:
      m_UseWorldSpace: 0
      m_FlipU: 0
      m_FlipV: 0
      m_SwapUV: 0
      m_Fill: 1
      m_Scale: {x: 1, y: 1}
      m_Offset: {x: 0, y: 0}
      m_Rotation: 0
      m_Anchor: 9
    m_Material: {fileID: 0}
    m_SubmeshIndex: 0
    m_ManualUV: 0
    elementGroup: -1
    m_TextureGroup: -1
  - m_Indexes: 140000001500000016000000150000001700000016000000
    m_SmoothingGroup: 0
    m_Uv:
      m_UseWorldSpace: 0
      m_FlipU: 0
      m_FlipV: 0
      m_SwapUV: 0
      m_Fill: 1
      m_Scale: {x: 1, y: 1}
      m_Offset: {x: 0, y: 0}
      m_Rotation: 0
      m_Anchor: 9
    m_Material: {fileID: 0}
    m_SubmeshIndex: 0
    m_ManualUV: 0
    elementGroup: -1
    m_TextureGroup: -1
  m_SharedVertices:
  - m_Vertices: 000000000d00000016000000
  - m_Vertices: 010000000400000017000000
  - m_Vertices: 020000000f00000010000000
  - m_Vertices: 030000000600000011000000
  - m_Vertices: 050000000800000015000000
  - m_Vertices: 070000000a00000013000000
  - m_Vertices: 090000000c00000014000000
  - m_Vertices: 0b0000000e00000012000000
  m_SharedTextures: []
  m_Positions:
  - {x: -1, y: 0, z: 0}
  - {x: 0, y: 0, z: 0}
  - {x: -1, y: 0.099999905, z: 0}
  - {x: 0, y: 0.099999905, z: 0}
  - {x: 0, y: 0, z: 0}
  - {x: 0, y: 0, z: -2}
  - {x: 0, y: 0.099999905, z: 0}
  - {x: 0, y: 0.099999905, z: -2}
  - {x: 0, y: 0, z: -2}
  - {x: -1, y: 0, z: -2}
  - {x: 0, y: 0.099999905, z: -2}
  - {x: -1, y: 0.099999905, z: -2}
  - {x: -1, y: 0, z: -2}
  - {x: -1, y: 0, z: 0}
  - {x: -1, y: 0.099999905, z: -2}
  - {x: -1, y: 0.099999905, z: 0}
  - {x: -1, y: 0.099999905, z: 0}
  - {x: 0, y: 0.099999905, z: 0}
  - {x: -1, y: 0.099999905, z: -2}
  - {x: 0, y: 0.099999905, z: -2}
  - {x: -1, y: 0, z: -2}
  - {x: 0, y: 0, z: -2}
  - {x: -1, y: 0, z: 0}
  - {x: 0, y: 0, z: 0}
  m_Textures0:
  - {x: 1, y: 0}
  - {x: 0, y: 0}
  - {x: 1, y: 0.099999905}
  - {x: 0, y: 0.099999905}
  - {x: 0, y: 0}
  - {x: -2, y: 0}
  - {x: 0, y: 0.099999905}
  - {x: -2, y: 0.099999905}
  - {x: 0, y: 0}
  - {x: -1, y: 0}
  - {x: 0, y: 0.099999905}
  - {x: -1, y: 0.099999905}
  - {x: 2, y: 0}
  - {x: 0, y: 0}
  - {x: 2, y: 0.099999905}
  - {x: 0, y: 0.099999905}
  - {x: -1, y: 0}
  - {x: 0, y: 0}
  - {x: -1, y: -2}
  - {x: 0, y: -2}
  - {x: 1, y: -2}
  - {x: 0, y: -2}
  - {x: 1, y: 0}
  - {x: 0, y: 0}
  m_Textures2: []
  m_Textures3: []
  m_Tangents:
  - {x: -1, y: 0, z: 0, w: -1}
  - {x: -1, y: 0, z: 0, w: -1}
  - {x: -1, y: 0, z: 0, w: -1}
  - {x: -1, y: 0, z: 0, w: -1}
  - {x: 0, y: 0, z: 1, w: -1}
  - {x: 0, y: 0, z: 1, w: -1}
  - {x: 0, y: 0, z: 1, w: -1}
  - {x: 0, y: 0, z: 1, w: -1}
  - {x: 1, y: 0, z: 0, w: -1}
  - {x: 1, y: 0, z: 0, w: -1}
  - {x: 1, y: 0, z: 0, w: -1}
  - {x: 1, y: 0, z: 0, w: -1}
  - {x: 0, y: 0, z: -1, w: -1}
  - {x: 0, y: 0, z: -1, w: -1}
  - {x: 0, y: 0, z: -1, w: -1}
  - {x: 0, y: 0, z: -1, w: -1}
  - {x: 1, y: 0, z: 0, w: -1}
  - {x: 1, y: 0, z: 0, w: -1}
  - {x: 1, y: 0, z: 0, w: -1}
  - {x: 1, y: 0, z: 0, w: -1}
  - {x: -1, y: 0, z: 0, w: -1}
  - {x: -1, y: 0, z: 0, w: -1}
  - {x: -1, y: 0, z: 0, w: -1}
  - {x: -1, y: 0, z: 0, w: -1}
  m_Colors: []
  m_UnwrapParameters:
    m_HardAngle: 88
    m_PackMargin: 20
    m_AngleError: 8
    m_AreaError: 15
  m_PreserveMeshAssetOnDestroy: 0
  assetGuid: 
  m_Mesh: {fileID: 0}
  m_VersionIndex: 503
  m_IsSelectable: 1
  m_SelectedFaces: 
  m_SelectedEdges: []
  m_SelectedVertices: 
--- !u!114 &4546778449818818157
MonoBehaviour:
  m_ObjectHideFlags: 0
  m_CorrespondingSourceObject: {fileID: 0}
  m_PrefabInstance: {fileID: 0}
  m_PrefabAsset: {fileID: 0}
  m_GameObject: {fileID: 6892082183458927279}
  m_Enabled: 1
  m_EditorHideFlags: 0
  m_Script: {fileID: 11500000, guid: 1ca002da428252441b92f28d83c8a65f, type: 3}
  m_Name: 
  m_EditorClassIdentifier: 
  m_Shape:
    rid: 2426874071794581510
  m_Size: {x: 1, y: 1, z: 1}
  m_Rotation: {x: 0, y: 0, z: 0, w: 1}
  m_PivotLocation: 1
  m_PivotPosition: {x: 0, y: 0, z: 0}
  m_UnmodifiedMeshVersion: 17
  m_ShapeBox:
    m_Center: {x: 0.5, y: 0.5, z: 0.5}
    m_Extent: {x: 0.5, y: 0.5, z: 0.5}
  references:
    version: 2
    RefIds:
    - rid: 2426874071794581510
      type: {class: Cube, ns: UnityEngine.ProBuilder.Shapes, asm: Unity.ProBuilder}
--- !u!23 &8451990085977060227
MeshRenderer:
  m_ObjectHideFlags: 0
  m_CorrespondingSourceObject: {fileID: 0}
  m_PrefabInstance: {fileID: 0}
  m_PrefabAsset: {fileID: 0}
  m_GameObject: {fileID: 6892082183458927279}
  m_Enabled: 1
  m_CastShadows: 1
  m_ReceiveShadows: 1
  m_DynamicOccludee: 1
  m_StaticShadowCaster: 0
  m_MotionVectors: 1
  m_LightProbeUsage: 1
  m_ReflectionProbeUsage: 1
  m_RayTracingMode: 2
  m_RayTraceProcedural: 0
  m_RenderingLayerMask: 1
  m_RendererPriority: 0
  m_Materials:
  - {fileID: 2100000, guid: c22777d6e868e4f2fb421913386b154e, type: 2}
  m_StaticBatchInfo:
    firstSubMesh: 0
    subMeshCount: 0
  m_StaticBatchRoot: {fileID: 0}
  m_ProbeAnchor: {fileID: 0}
  m_LightProbeVolumeOverride: {fileID: 0}
  m_ScaleInLightmap: 1
  m_ReceiveGI: 1
  m_PreserveUVs: 0
  m_IgnoreNormalsForChartDetection: 0
  m_ImportantGI: 0
  m_StitchLightmapSeams: 1
  m_SelectedEditorRenderState: 2
  m_MinimumChartSize: 4
  m_AutoUVMaxDistance: 0.5
  m_AutoUVMaxAngle: 89
  m_LightmapParameters: {fileID: 0}
  m_SortingLayerID: 0
  m_SortingLayer: 0
  m_SortingOrder: 0
  m_AdditionalVertexStreams: {fileID: 0}
--- !u!33 &3139898159538318044
MeshFilter:
  m_ObjectHideFlags: 0
  m_CorrespondingSourceObject: {fileID: 0}
  m_PrefabInstance: {fileID: 0}
  m_PrefabAsset: {fileID: 0}
  m_GameObject: {fileID: 6892082183458927279}
  m_Mesh: {fileID: 0}
--- !u!64 &6290533839409185651
MeshCollider:
  m_ObjectHideFlags: 0
  m_CorrespondingSourceObject: {fileID: 0}
  m_PrefabInstance: {fileID: 0}
  m_PrefabAsset: {fileID: 0}
  m_GameObject: {fileID: 6892082183458927279}
  m_Material: {fileID: 0}
  m_IsTrigger: 0
  m_Enabled: 1
  serializedVersion: 4
  m_Convex: 0
  m_CookingOptions: 30
  m_Mesh: {fileID: 0}
